Evaluation results
train-phase:
TPs: 5196
TNs: 4655
FPs: 66
FNs: 25
Precision: 0.9874572405929305
Recall: 0.9952116452786822
F1: 0.9913192788323952
test-phase:
TPs: 1057
TNs: 881
FPs: 170
FNs: 144
Precision: 0.8614506927465363
Recall: 0.8800999167360533
F1: 0.870675453047776

Mode mask_other
Concepts in theory (total=9): [259, 417, 377, 175, 450, 24, 439, 204, 53]

Concepts in BG (total=504): [117, 130, 157, 164, 166, 168, 169, 173, 178, 222, 24, 240, 246, 247, 259, 293, 300, 322, 34, 340, 35, 351, 359, 36, 373, 375, 377, 386, 387, 389, 397, 409, 414, 417, 436, 439, 44, 440, 449, 478, 49, 492, 496, 497, 503, 506, 510, 63, 85, 93, 97, 98, 120, 121, 132, 15, 170, 180, 192, 204, 213, 230, 248, 251, 277, 28, 298, 308, 309, 314, 341, 348, 361, 367, 376, 379, 403, 423, 426, 462, 487, 500, 62, 64, 66, 69, 96, 116, 149, 167, 171, 187, 19, 197, 229, 237, 286, 32, 326, 33, 347, 364, 382, 400, 416, 434, 437, 450, 460, 463, 473, 481, 483, 498, 68, 76, 103, 152, 179, 186, 206, 256, 279, 285, 29, 337, 356, 393, 459, 77, 101, 119, 12, 134, 14, 144, 16, 162, 176, 208, 218, 228, 241, 269, 294, 368, 407, 428, 429, 443, 452, 457, 485, 108, 143, 147, 236, 255, 274, 290, 315, 339, 360, 363, 366, 410, 415, 419, 435, 438, 51, 72, 74, 100, 131, 205, 215, 270, 276, 330, 333, 372, 396, 442, 461, 10, 13, 146, 182, 207, 212, 217, 252, 273, 313, 332, 4, 421, 422, 43, 484, 501, 1, 196, 214, 234, 281, 297, 3, 353, 418, 432, 433, 454, 468, 476, 55, 122, 128, 154, 175, 257, 295, 316, 319, 455, 479, 509, 60, 86, 184, 210, 223, 231, 425, 441, 471, 198, 21, 232, 394, 447, 464, 81, 82, 141, 296, 42, 47, 61, 124, 159, 177, 191, 219, 220, 317, 349, 369, 104, 181, 27, 272, 444, 465, 474, 102, 301, 304, 475, 150, 343, 362, 408, 451, 75, 137, 283, 39, 446, 507, 161, 216, 221, 291, 350, 431, 65, 138, 2, 244, 508, 113, 115, 320, 334, 358, 402, 188, 23, 243, 325, 346, 380, 45, 125, 190, 311, 342, 106, 160, 278, 383, 401, 46, 344, 70, 105, 25, 303, 53, 71, 78, 87, 94, 127, 249, 37, 99, 305, 352, 111, 139, 174, 91, 136, 209, 335, 388, 73, 90, 267, 329, 26, 282, 287, 357, 50, 458, 495, 5, 266, 384, 469, 201, 355, 482, 310, 324, 345, 398, 67, 145, 202, 225, 406, 328, 385, 466, 472, 30, 370, 133, 238, 412, 9, 280, 302, 142, 505, 392, 430, 140, 254, 499, 158, 288, 307, 31, 79, 89, 258, 399, 405, 502, 163, 467, 123, 374, 109, 185, 420, 493, 80, 41, 135, 268, 11, 261, 227, 284, 504, 17, 381, 118, 84, 327, 336, 456, 54, 193, 264, 265, 262, 151, 172, 153, 38, 490, 224, 494, 52, 107, 235, 271, 413, 470, 489, 112, 22, 511, 404, 110, 338, 260, 395, 8, 371, 0, 306, 275, 59, 289, 189, 126, 129, 354, 448, 7, 226, 194, 242, 263, 390, 58, 6, 156, 292, 477, 491, 165, 391, 424, 445, 312, 200, 199, 453, 365, 299, 211, 488, 148, 88, 427, 331, 114, 250, 323, 18, 195, 183, 321, 83, 57, 48, 486, 56, 20, 92, 318, 378, 239, 203]
Masked out concepts (total=8): {480, 40, 233, 411, 245, 155, 253, 95}
